
C:\Users\tomo\Programing\skillchecks\TopCoder\EducationMM
$ FOR /L %I IN (1 1 10) DO @a.bat %I 
Score = 1.0
Score = 0.8796296296296297
Score = 0.8330892830819124
Score = 0.8111334691173223
Score = 0.8894861216806185
Score = 0.8819305943358596
Score = 0.730344570087476
Score = 0.785979758705472
Score = 0.8876533742331288
Score = 0.8837416922924313
